{
    "result_count": 1,
    "results": [
        {
            "enumeration_type": "NPI-1",
            "number": 1497100564,
            "last_updated_epoch": 1592409651,
            "created_epoch": 1461628800,
            "basic": {
                "first_name": "CHRISTOPHER",
                "last_name": "ACKER",
                "middle_name": "E",
                "credential": "MD",
                "sole_proprietor": "NO",
                "gender": "M",
                "enumeration_date": "2016-04-26",
                "last_updated": "2020-06-17",
                "status": "A",
                "name": "ACKER CHRISTOPHER",
                "certification_date": "2020-06-17"
            },
            "other_names": [],
            "addresses": [
                {
                    "country_code": "US",
                    "country_name": "United States",
                    "address_purpose": "LOCATION",
                    "address_type": "DOM",
                    "address_1": "280 FORT SANDERS WEST BLVD",
                    "address_2": "",
                    "city": "KNOXVILLE",
                    "state": "TN",
                    "postal_code": "379223351",
                    "telephone_number": "655-390-2708",
                    "fax_number": "865-539-6998"
                },
                {
                    "country_code": "US",
                    "country_name": "United States",
                    "address_purpose": "MAILING",
                    "address_type": "DOM",
                    "address_1": "1275 DICK LONAS RD UNIT 101",
                    "address_2": "",
                    "city": "KNOXVILLE",
                    "state": "TN",
                    "postal_code": "379091383",
                    "telephone_number": "865-584-4747",
                    "fax_number": "865-584-1363"
                }
            ],
            "taxonomies": [
                {
                    "code": "390200000X",
                    "desc": "Student in an Organized Health Care Education/Training Program",
                    "primary": false,
                    "state": "",
                    "license": ""
                },
                {
                    "code": "207Q00000X",
                    "desc": "Family Medicine",
                    "primary": true,
                    "state": "TN",
                    "license": "61358"
                }
            ],
            "identifiers": []
        }
    ]
}